75
111111111111111111111111111111111111111111111111111111111111111111111111111
1000000000000000000000000000000000000000000000000000111111111111000000P0001
100000000000000000000000000000000000000000000000000011111111111100000000001
100000000000000000000000000000000000000000000000000011111111111100000000001
100000000000002222222222000000000000000000000000000011111111111144444444441
1P0000000133333333333333333333333333100010000000000011111111111144444444441
111111111111111111111111111111111111111111111000000011111111111144444444441
100000000000000000000000000000000000000000000111000011111111111144444444441
100000000000000000000000000000000000000000000000000011111111111144444444441
100000000000000000000000000000000000000000000000001111111111111144444444441
100000000000000000000000000000000000000000000011111111111111111144444444441
100000000000000000000000000000000000000000011111111111111111111144444444441
100000000B00000000000666666600000000000011111111111111111111111144444444441
1000001111111000001133333333311000000111111111111111111111111111444444G4441
111111111111111111111111111111111111111111111111111111111111111111111111111
P The Professor: Hello, Ballz. I have jolly good news for you!
B Ballz: Sweet! A new weapon?
P The Professor: Well... kind of... I have sent mutation updates for your DNA through cyberspace. With this new genome you will have the ability to transform into an IRON BALL!
B Ballz: That sure sounds like Ballz!!
P The Professor: Anyway... This new power should be helpful on your mission, but remember that this new genome is not fully tested. There may be side effects.
C The Colonel: Enough with the tech-talk! Get out there and make yourself useful, Ballz! Just press SHIFT to use Prof's new thingy.
B Ballz: Sure thing, Colonel!