47
1100010000000000110000000000000000000d100000001
11000E00000000001100000000000001111111100000201
11020111119990000000000000000000000000144411141
110G0111110000000000000011111000000000144488141
11111111100000011111100011111000000000144444141
111G1111000000010220100000000000011000144444141
1110111000000000000000000000000111P100100000141
11100000000110000000000000001111110100D0000d141
11111111111111111111111111110011110111111111141
10000000000000000000011111000001111100011111141
1000B000111111111102011111000000100002000001441
10001000111111111100011P10000000000000000000001
10111111111100111119111010009999999990999999991
10000000000000000000000000001000000000000000001
11111111111111111111111111111000000000000000001