89
11120000000000111111100111111111111111111111111111111111111111111111111111111111111111111
1000000000000000000000000000000000000000P000000000000000000000000000000000000000000000001
10000100000000000000000000000000000000000000000000000000000000000000000001000000000000001
10000000000100111111111110000000000000000000000000100000002000000000000011100000000000001
10000000100000000000000000000100000000000000000000000000000000100000000100010000000000001
10000000000000000000000000000000000000000000000000000000000010000000001000001000000000001
10000000000000000000000000010000000000000000000100000000010000000000010000000100000000001
10000000001000000000000000000000000000000000000000000000000000000000000000000010000000001
10000000000001000001200001000000000000000001100002000101000000000000000000000001000000001
10000000000000000000110000000000000000000000000000000000000000000010000000000001100000001
10000000000000000000000000000000000000000000000000000000000000000101000000000001010000001
10000000000100000000000011000000000000011110000000000000000000000001000000000001000000001
1000000000000000000000000000010000000000000020000000000000000000000100000G000001000000001
10B00000000000000000000000000000111100000000000000000P00000000000001111111111111000000001
11111010100000000000000000000000000000000000010010010000000000000000000000000000000000001