59
10000000000000000000000000000000000000000000000000000000001
10000000000000000000000000000000000000000000000000000000001
10000000000000000000000000000000000000000000000000000000001
10000000000000000000000000000000000000000000000000000000001
10000000000000000000000000000000000000000000000000000000001
10000000000000000000020000000000000000000000000000000000001
100000000000000000000000000000000000G0000000000000000000001
10000000000000000000000000001111111111111000000000000000001
10000000000000000000000000000000000200000001111111000000001
10000000000000000000000000000000000000000000000000000000201
10000000000000000111111111000000000000000000000000001111111
10000000000000000000000011000000000000011000000000001111111
10000000000110000000000011000000000000011000000000001111111
10000B00000111111111111111111111111111111111111111111111111
11111111111111111111111111111111111111111111111111111111111