75
111111111111111111111111111111111111111111111111111111111111111111111111111
1B0002000000000014000000000000000000000000000000000000000000000000000000001
100001111111100014111000000000000000000000000000000000000000000000000000001
100000000000010014100100000000000000000000000000000000000000000000000000001
1000000000000000181666100000000200020002000000000000002000000000011G0000161
100001100099111114411111111119999999999111100000000001000000171111111111111
10000010110000021440000000000000Q001000100011111110101111111111100000000001
111111101000000210000000000000000001661000000000000000000000000000000000001
100000001000000211111010111199999111110000000000000000000000000000000000001
1011111110000111100000000000000000000000000000000000000000000000000000000P1
100000000000000000000000000000000000200000000000000000000000070070070000201
111111111009000000000000000000000000000000000000111144411110010010010002001
1P0000001000000000090909090111110000000000000111144444441111111111111111111
1000000Q1000000011133333333120000000000000111444444448484441666666666666661
111111111111111111111111111111111111100111111111111111111111111111111111111