45
100000000000000000000000000000000000000000001
100000000000000000000000000000000000000000001
100000000000000000000000000000000000000000001
100000000000000000000000000000000000000000001
100000000000000000000000000000000000000000001
100000000000000000000000000000010000000000001
100000000000000000000000000000010000000000001
1000000000000000000000000000000D0020000000001
100000000000000000000000000000110000000000001
100000000000000000000000000000100000000000G01
100000000000000000000000000000111111111111111
100000000000002000000000000000111111111111111
100000000000111110000000001111111111111111111
10000B00000011111d000000001111111111111111111
111111111111111111111111111111111111111111111
P The Professor: BALLZ! BALLZ Can you read me?
P ...
B Ballz: Loud and clear professor!
P The Professor: Thank God! For a moment I thought her Majesty's secret service had lost its only gene-manipulated ball specialized in close combat and ball warfare!
B Ballz: I'm all right professor.
C The Colonel: Enough of this gay talk! You have a mission to finish Ballz!
C The plane we sent you in crash-landed, you might have been spotted by Iranian patrols. Your mission is to rescue the captured English soldiers from the Iranian prison nearby.
B Ballz: Sounds like a mission for Ballz!
P The Professor: Good luck Ballz!
P Oh I almost forgot, if you see any stars be sure to pick them up. You'll need them to unlock new levels.